[
    {
        "id": 1,
        "first_name": "Trixie",
        "last_name": "Aluard",
        "email": "taluard0@deliciousdays.com",
        "gender": "Female"
    },
    {
        "id": 2,
        "first_name": "Barron",
        "last_name": "Ekell",
        "email": "bekell1@xing.com",
        "gender": "Male"
    },
    {
        "id": 3,
        "first_name": "Florencia",
        "last_name": "Peel",
        "email": "fpeel2@bing.com",
        "gender": "Female"
    },
    {
        "id": 4,
        "first_name": "Carley",
        "last_name": "De Benedictis",
        "email": "cdebenedictis3@webs.com",
        "gender": "Female"
    },
    {
        "id": 5,
        "first_name": "Sissy",
        "last_name": "Glader",
        "email": "sglader4@amazon.co.uk",
        "gender": "Female"
    },
    {
        "id": 6,
        "first_name": "Yvonne",
        "last_name": "Rizzardi",
        "email": "yrizzardi5@github.io",
        "gender": "Female"
    },
    {
        "id": 7,
        "first_name": "Nonah",
        "last_name": "Dutchburn",
        "email": "ndutchburn6@nyu.edu",
        "gender": "Female"
    },
    {
        "id": 8,
        "first_name": "Kettie",
        "last_name": "Norres",
        "email": "knorres7@fema.gov",
        "gender": "Female"
    },
    {
        "id": 9,
        "first_name": "Riobard",
        "last_name": "Gavini",
        "email": "rgavini8@scientificamerican.com",
        "gender": "Male"
    },
    {
        "id": 10,
        "first_name": "Thane",
        "last_name": "Vearncombe",
        "email": "tvearncombe9@reverbnation.com",
        "gender": "Male"
    },
    {
        "id": 11,
        "first_name": "Paige",
        "last_name": "Hunton",
        "email": "phuntona@booking.com",
        "gender": "Female"
    },
    {
        "id": 12,
        "first_name": "Mignon",
        "last_name": "Loades",
        "email": "mloadesb@weather.com",
        "gender": "Female"
    },
    {
        "id": 13,
        "first_name": "Hallie",
        "last_name": "Haggie",
        "email": "hhaggiec@yale.edu",
        "gender": "Female"
    },
    {
        "id": 14,
        "first_name": "Margarette",
        "last_name": "Probyn",
        "email": "mprobynd@indiatimes.com",
        "gender": "Female"
    },
    {
        "id": 15,
        "first_name": "Corry",
        "last_name": "Zienkiewicz",
        "email": "czienkiewicze@trellian.com",
        "gender": "Female"
    },
    {
        "id": 16,
        "first_name": "Perkin",
        "last_name": "Redford",
        "email": "predfordf@geocities.jp",
        "gender": "Male"
    },
    {
        "id": 17,
        "first_name": "Clerkclaude",
        "last_name": "Gudahy",
        "email": "cgudahyg@a8.net",
        "gender": "Male"
    },
    {
        "id": 18,
        "first_name": "Neile",
        "last_name": "Aaronsohn",
        "email": "naaronsohnh@blogtalkradio.com",
        "gender": "Female"
    },
    {
        "id": 19,
        "first_name": "Benson",
        "last_name": "Beavis",
        "email": "bbeavisi@creativecommons.org",
        "gender": "Male"
    },
    {
        "id": 20,
        "first_name": "Terence",
        "last_name": "Cranham",
        "email": "tcranhamj@globo.com",
        "gender": "Male"
    },
    {
        "id": 21,
        "first_name": "Rachel",
        "last_name": "Sponer",
        "email": "rsponerk@cbsnews.com",
        "gender": "Female"
    },
    {
        "id": 22,
        "first_name": "Alaine",
        "last_name": "Sheal",
        "email": "asheall@geocities.com",
        "gender": "Female"
    },
    {
        "id": 23,
        "first_name": "Lesya",
        "last_name": "Liepins",
        "email": "lliepinsm@shutterfly.com",
        "gender": "Female"
    },
    {
        "id": 24,
        "first_name": "Flint",
        "last_name": "Farleigh",
        "email": "ffarleighn@artisteer.com",
        "gender": "Male"
    },
    {
        "id": 25,
        "first_name": "Garrard",
        "last_name": "Petley",
        "email": "gpetleyo@gizmodo.com",
        "gender": "Male"
    },
    {
        "id": 26,
        "first_name": "Ariel",
        "last_name": "Hannan",
        "email": "ahannanp@cmu.edu",
        "gender": "Female"
    },
    {
        "id": 27,
        "first_name": "Birk",
        "last_name": "Rudge",
        "email": "brudgeq@ft.com",
        "gender": "Male"
    },
    {
        "id": 28,
        "first_name": "Leonhard",
        "last_name": "Haggish",
        "email": "lhaggishr@msn.com",
        "gender": "Male"
    },
    {
        "id": 29,
        "first_name": "Granthem",
        "last_name": "Seabright",
        "email": "gseabrights@a8.net",
        "gender": "Male"
    },
    {
        "id": 30,
        "first_name": "Federico",
        "last_name": "Sabates",
        "email": "fsabatest@gnu.org",
        "gender": "Male"
    },
    {
        "id": 31,
        "first_name": "Felicia",
        "last_name": "Dillestone",
        "email": "fdillestoneu@paginegialle.it",
        "gender": "Female"
    },
    {
        "id": 32,
        "first_name": "Melisa",
        "last_name": "Trenear",
        "email": "mtrenearv@tinyurl.com",
        "gender": "Female"
    },
    {
        "id": 33,
        "first_name": "Selig",
        "last_name": "Martt",
        "email": "smarttw@plala.or.jp",
        "gender": "Male"
    },
    {
        "id": 34,
        "first_name": "Kassi",
        "last_name": "Mc Caghan",
        "email": "kmccaghanx@cyberchimps.com",
        "gender": "Female"
    },
    {
        "id": 35,
        "first_name": "Neils",
        "last_name": "Summerly",
        "email": "nsummerlyy@rakuten.co.jp",
        "gender": "Male"
    },
    {
        "id": 36,
        "first_name": "Ogdon",
        "last_name": "Avieson",
        "email": "oaviesonz@time.com",
        "gender": "Male"
    },
    {
        "id": 37,
        "first_name": "Henri",
        "last_name": "Isakson",
        "email": "hisakson10@nih.gov",
        "gender": "Male"
    },
    {
        "id": 38,
        "first_name": "Claiborn",
        "last_name": "Looby",
        "email": "clooby11@mozilla.org",
        "gender": "Male"
    },
    {
        "id": 39,
        "first_name": "Lois",
        "last_name": "De Anesy",
        "email": "ldeanesy12@moonfruit.com",
        "gender": "Female"
    },
    {
        "id": 40,
        "first_name": "Aridatha",
        "last_name": "Pover",
        "email": "apover13@redcross.org",
        "gender": "Female"
    },
    {
        "id": 41,
        "first_name": "Catherine",
        "last_name": "Kensett",
        "email": "ckensett14@answers.com",
        "gender": "Female"
    },
    {
        "id": 42,
        "first_name": "Gaye",
        "last_name": "Kittoe",
        "email": "gkittoe15@bing.com",
        "gender": "Female"
    },
    {
        "id": 43,
        "first_name": "Cordy",
        "last_name": "Wheatman",
        "email": "cwheatman16@github.com",
        "gender": "Male"
    },
    {
        "id": 44,
        "first_name": "Sullivan",
        "last_name": "Pietroni",
        "email": "spietroni17@diigo.com",
        "gender": "Male"
    },
    {
        "id": 45,
        "first_name": "Frieda",
        "last_name": "Marton",
        "email": "fmarton18@oakley.com",
        "gender": "Female"
    },
    {
        "id": 46,
        "first_name": "Patrice",
        "last_name": "Eskell",
        "email": "peskell19@netscape.com",
        "gender": "Female"
    },
    {
        "id": 47,
        "first_name": "Koren",
        "last_name": "Endricci",
        "email": "kendricci1a@imgur.com",
        "gender": "Female"
    },
    {
        "id": 48,
        "first_name": "Tate",
        "last_name": "Chsteney",
        "email": "tchsteney1b@arizona.edu",
        "gender": "Male"
    },
    {
        "id": 49,
        "first_name": "Justinn",
        "last_name": "Borrett",
        "email": "jborrett1c@alibaba.com",
        "gender": "Female"
    },
    {
        "id": 50,
        "first_name": "Archibald",
        "last_name": "Revie",
        "email": "arevie1d@yale.edu",
        "gender": "Male"
    },
    {
        "id": 51,
        "first_name": "Nikolaos",
        "last_name": "Marlow",
        "email": "nmarlow1e@google.ru",
        "gender": "Male"
    },
    {
        "id": 52,
        "first_name": "Sheelah",
        "last_name": "Wingeatt",
        "email": "swingeatt1f@state.gov",
        "gender": "Female"
    },
    {
        "id": 53,
        "first_name": "Rozanna",
        "last_name": "Ravenshaw",
        "email": "rravenshaw1g@shutterfly.com",
        "gender": "Female"
    },
    {
        "id": 54,
        "first_name": "Ingrim",
        "last_name": "Fussie",
        "email": "ifussie1h@tmall.com",
        "gender": "Male"
    },
    {
        "id": 55,
        "first_name": "Myrtia",
        "last_name": "Bowhay",
        "email": "mbowhay1i@ucoz.ru",
        "gender": "Female"
    },
    {
        "id": 56,
        "first_name": "Belicia",
        "last_name": "Haffard",
        "email": "bhaffard1j@examiner.com",
        "gender": "Female"
    },
    {
        "id": 57,
        "first_name": "Cris",
        "last_name": "Cartmel",
        "email": "ccartmel1k@japanpost.jp",
        "gender": "Female"
    },
    {
        "id": 58,
        "first_name": "Valenka",
        "last_name": "Kondrat",
        "email": "vkondrat1l@microsoft.com",
        "gender": "Female"
    },
    {
        "id": 59,
        "first_name": "Alexandros",
        "last_name": "Rakestraw",
        "email": "arakestraw1m@vkontakte.ru",
        "gender": "Male"
    },
    {
        "id": 60,
        "first_name": "Davide",
        "last_name": "Constable",
        "email": "dconstable1n@smh.com.au",
        "gender": "Male"
    },
    {
        "id": 61,
        "first_name": "Bobbe",
        "last_name": "Demke",
        "email": "bdemke1o@goo.gl",
        "gender": "Female"
    },
    {
        "id": 62,
        "first_name": "Saul",
        "last_name": "Elderbrant",
        "email": "selderbrant1p@a8.net",
        "gender": "Male"
    },
    {
        "id": 63,
        "first_name": "Tymon",
        "last_name": "Antonsen",
        "email": "tantonsen1q@un.org",
        "gender": "Male"
    },
    {
        "id": 64,
        "first_name": "Mordy",
        "last_name": "Thewles",
        "email": "mthewles1r@moonfruit.com",
        "gender": "Male"
    },
    {
        "id": 65,
        "first_name": "Durward",
        "last_name": "Longworth",
        "email": "dlongworth1s@upenn.edu",
        "gender": "Male"
    },
    {
        "id": 66,
        "first_name": "Clevie",
        "last_name": "Pappin",
        "email": "cpappin1t@abc.net.au",
        "gender": "Male"
    },
    {
        "id": 67,
        "first_name": "Janene",
        "last_name": "Ramberg",
        "email": "jramberg1u@prweb.com",
        "gender": "Female"
    },
    {
        "id": 68,
        "first_name": "Broddy",
        "last_name": "Hedon",
        "email": "bhedon1v@aol.com",
        "gender": "Male"
    },
    {
        "id": 69,
        "first_name": "Tannie",
        "last_name": "Lipmann",
        "email": "tlipmann1w@techcrunch.com",
        "gender": "Male"
    },
    {
        "id": 70,
        "first_name": "Brad",
        "last_name": "Dench",
        "email": "bdench1x@google.com.hk",
        "gender": "Male"
    },
    {
        "id": 71,
        "first_name": "Merci",
        "last_name": "O'Dyvoy",
        "email": "modyvoy1y@va.gov",
        "gender": "Female"
    },
    {
        "id": 72,
        "first_name": "Pyotr",
        "last_name": "Annwyl",
        "email": "pannwyl1z@amazon.co.uk",
        "gender": "Male"
    },
    {
        "id": 73,
        "first_name": "Suzann",
        "last_name": "Ponder",
        "email": "sponder20@mozilla.org",
        "gender": "Female"
    },
    {
        "id": 74,
        "first_name": "Chloris",
        "last_name": "Dootson",
        "email": "cdootson21@cam.ac.uk",
        "gender": "Female"
    },
    {
        "id": 75,
        "first_name": "Windham",
        "last_name": "Haverson",
        "email": "whaverson22@ft.com",
        "gender": "Male"
    },
    {
        "id": 76,
        "first_name": "Leif",
        "last_name": "Purdon",
        "email": "lpurdon23@furl.net",
        "gender": "Male"
    },
    {
        "id": 77,
        "first_name": "Anders",
        "last_name": "Kleinsinger",
        "email": "akleinsinger24@wiley.com",
        "gender": "Male"
    },
    {
        "id": 78,
        "first_name": "Dari",
        "last_name": "Loveitt",
        "email": "dloveitt25@list-manage.com",
        "gender": "Female"
    },
    {
        "id": 79,
        "first_name": "Vicky",
        "last_name": "Sweatman",
        "email": "vsweatman26@taobao.com",
        "gender": "Female"
    },
    {
        "id": 80,
        "first_name": "Samuele",
        "last_name": "D'Errico",
        "email": "sderrico27@hao123.com",
        "gender": "Male"
    },
    {
        "id": 81,
        "first_name": "Sonny",
        "last_name": "Giblin",
        "email": "sgiblin28@printfriendly.com",
        "gender": "Female"
    },
    {
        "id": 82,
        "first_name": "Antonie",
        "last_name": "Flute",
        "email": "aflute29@toplist.cz",
        "gender": "Female"
    },
    {
        "id": 83,
        "first_name": "Gayleen",
        "last_name": "Grigaut",
        "email": "ggrigaut2a@seattletimes.com",
        "gender": "Female"
    },
    {
        "id": 84,
        "first_name": "Felicio",
        "last_name": "Hessel",
        "email": "fhessel2b@pcworld.com",
        "gender": "Male"
    },
    {
        "id": 85,
        "first_name": "Charity",
        "last_name": "Frammingham",
        "email": "cframmingham2c@google.ru",
        "gender": "Female"
    },
    {
        "id": 86,
        "first_name": "Godfry",
        "last_name": "Ransom",
        "email": "gransom2d@taobao.com",
        "gender": "Male"
    },
    {
        "id": 87,
        "first_name": "Emelda",
        "last_name": "Kiljan",
        "email": "ekiljan2e@slashdot.org",
        "gender": "Female"
    },
    {
        "id": 88,
        "first_name": "Aristotle",
        "last_name": "O'Drought",
        "email": "aodrought2f@google.nl",
        "gender": "Male"
    },
    {
        "id": 89,
        "first_name": "Rafe",
        "last_name": "Leonarde",
        "email": "rleonarde2g@vistaprint.com",
        "gender": "Male"
    },
    {
        "id": 90,
        "first_name": "Christopher",
        "last_name": "Braycotton",
        "email": "cbraycotton2h@nps.gov",
        "gender": "Male"
    },
    {
        "id": 91,
        "first_name": "Delbert",
        "last_name": "Brogan",
        "email": "dbrogan2i@smh.com.au",
        "gender": "Male"
    },
    {
        "id": 92,
        "first_name": "Haskell",
        "last_name": "Waterworth",
        "email": "hwaterworth2j@craigslist.org",
        "gender": "Male"
    },
    {
        "id": 93,
        "first_name": "Pegeen",
        "last_name": "Schwieso",
        "email": "pschwieso2k@creativecommons.org",
        "gender": "Female"
    },
    {
        "id": 94,
        "first_name": "Melisandra",
        "last_name": "Bontine",
        "email": "mbontine2l@mlb.com",
        "gender": "Female"
    },
    {
        "id": 95,
        "first_name": "Wallie",
        "last_name": "Hearley",
        "email": "whearley2m@dyndns.org",
        "gender": "Female"
    },
    {
        "id": 96,
        "first_name": "Marius",
        "last_name": "Eakens",
        "email": "meakens2n@i2i.jp",
        "gender": "Male"
    },
    {
        "id": 97,
        "first_name": "Ransom",
        "last_name": "Beran",
        "email": "rberan2o@dagondesign.com",
        "gender": "Male"
    },
    {
        "id": 98,
        "first_name": "Monah",
        "last_name": "Grantham",
        "email": "mgrantham2p@yandex.ru",
        "gender": "Female"
    },
    {
        "id": 99,
        "first_name": "Leanna",
        "last_name": "Peagrim",
        "email": "lpeagrim2q@goo.gl",
        "gender": "Female"
    },
    {
        "id": 100,
        "first_name": "Fenelia",
        "last_name": "Colegrove",
        "email": "fcolegrove2r@jiathis.com",
        "gender": "Female"
    }
]